{"data":{"items":[{"id":1,"name":"Kabul","local_name":"Kabol","lat":34.5166667,"lng":69.1833344,"created_at":"2018-01-07 17:08:01","updated_at":"2018-04-12 21:37:25","country_id":2,"country":{"id":2,"name":"Afghanistan","code":"AFG","created_at":"2018-01-07 17:08:01","updated_at":"2018-01-07 17:08:01","continent_id":1}}],"pagination":{"current_page":1,"last_page":272,"per_page":15,"total":4079}},"time":1534842856}
